---
http_interactions:
- request:
    method: get
    uri: https://www.federalregister.gov/api/v1/documents.json?conditions%5Bpresident%5D%5B0%5D=donald-trump&conditions%5Bpresidential_document_type%5D%5B0%5D=executive_order&order=newest&per_page=5
    body:
      encoding: US-ASCII
      string: ''
    headers:
      User-Agent:
      - Faraday v2.12.2
      Accept-Encoding:
      - gzip;q=1.0,deflate;q=0.6,identity;q=0.3
      Accept:
      - "*/*"
  response:
    status:
      code: 200
      message: OK
    headers:
      Date:
      - Thu, 06 Mar 2025 03:12:12 GMT
      Content-Type:
      - application/json; charset=utf-8
      Content-Length:
      - '4809'
      Connection:
      - keep-alive
      Status:
      - 200 OK
      Access-Control-Allow-Origin:
      - "*"
      Strict-Transport-Security:
      - max-age=63072000; includeSubDomains
      Referrer-Policy:
      - strict-origin-when-cross-origin
      X-Permitted-Cross-Domain-Policies:
      - none
      X-Xss-Protection:
      - 1; mode=block
      X-Request-Id:
      - Root1-67c911a5-67230eb367008d427c6596ab
      X-Download-Options:
      - noopen
      X-Frame-Options:
      - DENY
      X-Runtime:
      - '0.026540'
      X-Content-Type-Options:
      - nosniff
      Content-Security-Policy:
      - 'default-src ''self'' https:; font-src ''self'' https: data:; img-src ''self''
        https: data: ''report-sample''; object-src ''none''; script-src ''self'' https:
        ''report-sample''; style-src ''self'' https: ''report-sample'' ''unsafe-inline'';
        report-uri https://api.honeybadger.io/v1/browser/csp?api_key=hbp_LAOWxDuK8xdllLjKAEKuStZNwPe8dE0uCkBF&env=production&report_only=false&context%5Bcsp_version%5D=2'
      Vary:
      - Accept-Encoding
      Age:
      - '230'
      Accept-Ranges:
      - bytes
    body:
      encoding: ASCII-8BIT
      string: '{"count":297,"description":"Documents signed by Donald Trump and of
        presidential document type Executive Order","total_pages":50,"next_page_url":"https://www.federalregister.gov/api/v1/documents?conditions%5Bpresident%5D%5B%5D=donald-trump&conditions%5Bpresidential_document_type%5D%5B%5D=executive_order&format=json&order=newest&page=2&per_page=5","results":[{"title":"Implementing
        the President''s \"Department of Government Efficiency\" Cost Efficiency Initiative","type":"Presidential
        Document","abstract":null,"document_number":"2025-03527","html_url":"https://www.federalregister.gov/documents/2025/03/03/2025-03527/implementing-the-presidents-department-of-government-efficiency-cost-efficiency-initiative","pdf_url":"https://www.govinfo.gov/content/pkg/FR-2025-03-03/pdf/2025-03527.pdf","public_inspection_pdf_url":"https://public-inspection.federalregister.gov/2025-03527.pdf?1740759309","publication_date":"2025-03-03","agencies":[{"raw_name":"EXECUTIVE
        OFFICE OF THE PRESIDENT","name":"Executive Office of the President","id":538,"url":"https://www.federalregister.gov/agencies/executive-office-of-the-president","json_url":"https://www.federalregister.gov/api/v1/agencies/538","parent_id":null,"slug":"executive-office-of-the-president"}],"excerpts":null},{"title":"Making
        America Healthy Again by Empowering Patients With Clear, Accurate, and Actionable
        Healthcare Pricing Information","type":"Presidential Document","abstract":null,"document_number":"2025-03440","html_url":"https://www.federalregister.gov/documents/2025/02/28/2025-03440/making-america-healthy-again-by-empowering-patients-with-clear-accurate-and-actionable-healthcare","pdf_url":"https://www.govinfo.gov/content/pkg/FR-2025-02-28/pdf/2025-03440.pdf","public_inspection_pdf_url":"https://public-inspection.federalregister.gov/2025-03440.pdf?1740672911","publication_date":"2025-02-28","agencies":[{"raw_name":"EXECUTIVE
        OFFICE OF THE PRESIDENT","name":"Executive Office of the President","id":538,"url":"https://www.federalregister.gov/agencies/executive-office-of-the-president","json_url":"https://www.federalregister.gov/api/v1/agencies/538","parent_id":null,"slug":"executive-office-of-the-president"}],"excerpts":null},{"title":"Addressing
        the Threat to National Security From Imports of Copper","type":"Presidential
        Document","abstract":null,"document_number":"2025-03439","html_url":"https://www.federalregister.gov/documents/2025/02/28/2025-03439/addressing-the-threat-to-national-security-from-imports-of-copper","pdf_url":"https://www.govinfo.gov/content/pkg/FR-2025-02-28/pdf/2025-03439.pdf","public_inspection_pdf_url":"https://public-inspection.federalregister.gov/2025-03439.pdf?1740672910","publication_date":"2025-02-28","agencies":[{"raw_name":"EXECUTIVE
        OFFICE OF THE PRESIDENT","name":"Executive Office of the President","id":538,"url":"https://www.federalregister.gov/agencies/executive-office-of-the-president","json_url":"https://www.federalregister.gov/api/v1/agencies/538","parent_id":null,"slug":"executive-office-of-the-president"}],"excerpts":null},{"title":"Ensuring
        Lawful Governance and Implementing the President''s \"Department of Government
        Efficiency\" Deregulatory Initiative","type":"Presidential Document","abstract":null,"document_number":"2025-03138","html_url":"https://www.federalregister.gov/documents/2025/02/25/2025-03138/ensuring-lawful-governance-and-implementing-the-presidents-department-of-government-efficiency","pdf_url":"https://www.govinfo.gov/content/pkg/FR-2025-02-25/pdf/2025-03138.pdf","public_inspection_pdf_url":"https://public-inspection.federalregister.gov/2025-03138.pdf?1740404712","publication_date":"2025-02-25","agencies":[{"raw_name":"EXECUTIVE
        OFFICE OF THE PRESIDENT","name":"Executive Office of the President","id":538,"url":"https://www.federalregister.gov/agencies/executive-office-of-the-president","json_url":"https://www.federalregister.gov/api/v1/agencies/538","parent_id":null,"slug":"executive-office-of-the-president"}],"excerpts":null},{"title":"Ending
        Taxpayer Subsidization of Open Borders","type":"Presidential Document","abstract":null,"document_number":"2025-03137","html_url":"https://www.federalregister.gov/documents/2025/02/25/2025-03137/ending-taxpayer-subsidization-of-open-borders","pdf_url":"https://www.govinfo.gov/content/pkg/FR-2025-02-25/pdf/2025-03137.pdf","public_inspection_pdf_url":"https://public-inspection.federalregister.gov/2025-03137.pdf?1740404712","publication_date":"2025-02-25","agencies":[{"raw_name":"EXECUTIVE
        OFFICE OF THE PRESIDENT","name":"Executive Office of the President","id":538,"url":"https://www.federalregister.gov/agencies/executive-office-of-the-president","json_url":"https://www.federalregister.gov/api/v1/agencies/538","parent_id":null,"slug":"executive-office-of-the-president"}],"excerpts":null}]}'
  recorded_at: Thu, 06 Mar 2025 03:12:12 GMT
recorded_with: VCR 6.3.1
